…
clusters.yeast[clusters.yeast$locus_tag %in% filter(clusters.esr, cluster == 2)$gene,]
clusters.yeast[clusters.yeast$locus_tag %in% filter(clusters.esr, cluster == 1)$gene,]
```

    ## # A tibble: 2 x 2
    ##   cluster     n
    ##     <int> <int>
    ## 1       1   585
    ## 2       2   283
    ## # A tibble: 196 x 2
    ##    locus_tag cluster
    ##    <chr>       <dbl>
    ##  1 YAL061W         2
    ##  2 YBL049W         2
    ##  3 YBL064C         2
    ##  4 YBL075C         2
    ##  5 YBR006W         2
    ##  6 YBR052C         2
    ##  7 YBR053C         2
    ##  8 YBR056W         2
    ##  9 YBR072W         2
    ## 10 YBR126C         2
    ## # ... with 186 more rows
    ## # A tibble: 375 x 2
    ##    locus_tag cluster
    ##    <chr>       <dbl>
    ##  1 YAL003W         1
    ##  2 YAR073W         1
    ##  3 YAR075W         1
    ##  4 YBL024W         1
    ##  5 YBL027W         1
    ##  6 YBL028C         1
    ##  7 YBL039C         1
    ##  8 YBL054W         1
    ##  9 YBL072C         1
    ## 10 YBL077W         1
    ## # ... with 365 more rows
…
